[gd_resource type="DynamicFont" load_steps=2 format=2]

[ext_resource path="res://theme resources/fonts/Bitter-Regular.ttf" type="DynamicFontData" id=1]

[resource]

size = 40
use_mipmaps = false
use_filter = true
font_data = ExtResource( 1 )
fallback/0 = ExtResource( 1 )
_sections_unfolded = [ "Extra Spacing", "Font", "Font/fallback", "Resource", "Settings" ]

