<?xml version="1.0" encoding="UTF-8" standalone="no"?>
<!-- Created with Inkscape (http://www.inkscape.org/) -->

<svg
   xmlns:dc="http://purl.org/dc/elements/1.1/"
   xmlns:cc="http://creativecommons.org/ns#"
   xmlns:rdf="http://www.w3.org/1999/02/22-rdf-syntax-ns#"
   xmlns:svg="http://www.w3.org/2000/svg"
   xmlns="http://www.w3.org/2000/svg"
   xmlns:sodipodi="http://sodipodi.sourceforge.net/DTD/sodipodi-0.dtd"
   xmlns:inkscape="http://www.inkscape.org/namespaces/inkscape"
   width="48mm"
   height="48mm"
   viewBox="0 0 48 48"
   version="1.1"
   id="svg8"
   inkscape:version="0.92.2 2405546, 2018-03-11"
   sodipodi:docname="grass-alt.svg"
   inkscape:export-filename="/home/washi/godot_projects/softeng2018-master/assets/textures/grass-alt.svg.png"
   inkscape:export-xdpi="96"
   inkscape:export-ydpi="96">
  <defs
     id="defs2" />
  <sodipodi:namedview
     id="base"
     pagecolor="#ffffff"
     bordercolor="#666666"
     borderopacity="1.0"
     inkscape:pageopacity="0.0"
     inkscape:pageshadow="2"
     inkscape:zoom="2"
     inkscape:cx="102.64532"
     inkscape:cy="98.393381"
     inkscape:document-units="mm"
     inkscape:current-layer="layer1"
     showgrid="false"
     inkscape:snap-bbox="true"
     inkscape:bbox-paths="true"
     inkscape:bbox-nodes="true"
     inkscape:snap-bbox-edge-midpoints="true"
     inkscape:snap-bbox-midpoints="true"
     inkscape:object-paths="true"
     inkscape:snap-intersection-paths="true"
     inkscape:window-width="1920"
     inkscape:window-height="1025"
     inkscape:window-x="0"
     inkscape:window-y="27"
     inkscape:window-maximized="1" />
  <metadata
     id="metadata5">
    <rdf:RDF>
      <cc:Work
         rdf:about="">
        <dc:format>image/svg+xml</dc:format>
        <dc:type
           rdf:resource="http://purl.org/dc/dcmitype/StillImage" />
        <dc:title></dc:title>
      </cc:Work>
    </rdf:RDF>
  </metadata>
  <g
     inkscape:label="Layer 1"
     inkscape:groupmode="layer"
     id="layer1"
     transform="translate(0,-249)">
    <rect
       style="fill:#00ff66;fill-opacity:1;fill-rule:nonzero;stroke:none;stroke-width:1.16836452;stroke-miterlimit:4;stroke-dasharray:none;stroke-opacity:1"
       id="rect815"
       width="48"
       height="48"
       x="0"
       y="249" />
    <rect
       style="fill:#00d400;fill-opacity:1;fill-rule:nonzero;stroke:none;stroke-width:0.41307926;stroke-miterlimit:4;stroke-dasharray:none;stroke-opacity:1"
       id="rect815-2"
       width="16.970564"
       height="16.970564"
       x="210.01071"
       y="176.0696"
       transform="rotate(44.999999)" />
    <rect
       style="fill:#00d400;fill-opacity:1;fill-rule:nonzero;stroke:none;stroke-width:0.41307926;stroke-miterlimit:4;stroke-dasharray:none;stroke-opacity:1"
       id="rect815-2-2"
       width="16.970564"
       height="16.970564"
       x="193.04015"
       y="159.09903"
       transform="rotate(44.999999)" />
    <path
       style="fill:#00d400;fill-opacity:1;fill-rule:nonzero;stroke:none;stroke-width:1.56124449;stroke-miterlimit:4;stroke-dasharray:none;stroke-opacity:1"
       d="M 0 0 L 0 90.708984 L 45.353516 45.353516 L 0 0 z "
       transform="matrix(0.26458333,0,0,0.26458333,0,249)"
       id="rect815-2-9-2" />
    <path
       inkscape:connector-curvature="0"
       style="fill:#00d400;fill-opacity:1;fill-rule:nonzero;stroke:none;stroke-width:0.41307926;stroke-miterlimit:4;stroke-dasharray:none;stroke-opacity:1"
       d="m 2.1368815e-4,272.99996 v 24.00009 L 11.999998,284.99974 Z"
       id="rect815-2-9-2-3" />
    <path
       inkscape:connector-curvature="0"
       style="fill:#00d400;fill-opacity:1;fill-rule:nonzero;stroke:none;stroke-width:0.41307926;stroke-miterlimit:4;stroke-dasharray:none;stroke-opacity:1"
       d="m 47.999784,249.00022 v 24.00009 L 36,261 Z"
       id="rect815-2-9-2-7" />
    <path
       inkscape:connector-curvature="0"
       style="fill:#00d400;fill-opacity:1;fill-rule:nonzero;stroke:none;stroke-width:0.41307926;stroke-miterlimit:4;stroke-dasharray:none;stroke-opacity:1"
       d="m 47.999571,273.00018 v 24.00009 L 35.999786,284.99996 Z"
       id="rect815-2-9-2-3-5" />
  </g>
</svg>
