# Blender v2.79 (sub 4) OBJ File: ''
# www.blender.org
mtllib playfield.mtl
o Cylinder
v 1.000000 -4.296485 0.000000
v 1.000000 4.296485 0.000000
v 0.500000 -4.296485 0.866025
v 0.500000 4.296485 0.866025
v -0.500000 -4.296485 0.866025
v -0.500000 4.296485 0.866025
v -1.000000 -4.296485 -0.000000
v -1.000000 4.296485 -0.000000
v -0.500000 -4.296485 -0.866025
v -0.500000 4.296485 -0.866025
v 0.500000 -4.296485 -0.866025
v 0.500000 4.296485 -0.866025
vn 0.8660 0.0000 0.5000
vn -0.0000 0.0000 1.0000
vn -0.8660 0.0000 0.5000
vn -0.8660 0.0000 -0.5000
vn 0.0000 0.0000 -1.0000
vn 0.8660 0.0000 -0.5000
usemtl None
s off
f 1//1 2//1 4//1 3//1
f 3//2 4//2 6//2 5//2
f 5//3 6//3 8//3 7//3
f 7//4 8//4 10//4 9//4
f 9//5 10//5 12//5 11//5
f 11//6 12//6 2//6 1//6
