<?xml version="1.0" encoding="UTF-8" standalone="no"?>
<svg
   xmlns:dc="http://purl.org/dc/elements/1.1/"
   xmlns:cc="http://creativecommons.org/ns#"
   xmlns:rdf="http://www.w3.org/1999/02/22-rdf-syntax-ns#"
   xmlns:svg="http://www.w3.org/2000/svg"
   xmlns="http://www.w3.org/2000/svg"
   xmlns:xlink="http://www.w3.org/1999/xlink"
   xmlns:sodipodi="http://sodipodi.sourceforge.net/DTD/sodipodi-0.dtd"
   xmlns:inkscape="http://www.inkscape.org/namespaces/inkscape"
   width="256"
   height="256"
   viewBox="0 0 67.733332 67.733335"
   version="1.1"
   id="svg3785"
   sodipodi:docname="StumpSquare.svg"
   inkscape:version="0.92.2 2405546, 2018-03-11">
  <sodipodi:namedview
     pagecolor="#ffffff"
     bordercolor="#666666"
     borderopacity="1"
     objecttolerance="10"
     gridtolerance="10"
     guidetolerance="10"
     inkscape:pageopacity="0"
     inkscape:pageshadow="2"
     inkscape:window-width="1920"
     inkscape:window-height="1061"
     id="namedview3804"
     showgrid="false"
     inkscape:zoom="3.3867188"
     inkscape:cx="78.099193"
     inkscape:cy="128"
     inkscape:window-x="0"
     inkscape:window-y="0"
     inkscape:window-maximized="0"
     inkscape:current-layer="layer1" />
  <defs
     id="defs3779">
    <linearGradient
       id="linearGradient818">
      <stop
         style="stop-color:#006984;stop-opacity:0.81568629"
         offset="0"
         id="stop814" />
      <stop
         style="stop-color:#00d2a7;stop-opacity:0.66666669"
         offset="1"
         id="stop816" />
    </linearGradient>
    <linearGradient
       xlink:href="#linearGradient818"
       id="linearGradient820"
       x1="0"
       y1="263.19039"
       x2="67.886459"
       y2="263.19039"
       gradientUnits="userSpaceOnUse"
       gradientTransform="matrix(0.97124893,0,0,0.96928043,1.0427216,7.9514625)" />
  </defs>
  <metadata
     id="metadata3782">
    <rdf:RDF>
      <cc:Work
         rdf:about="">
        <dc:format>image/svg+xml</dc:format>
        <dc:type
           rdf:resource="http://purl.org/dc/dcmitype/StillImage" />
        <dc:title></dc:title>
      </cc:Work>
    </rdf:RDF>
  </metadata>
  <g
     id="layer1"
     transform="translate(0,-229.26666)">
    <rect
       style="opacity:1;fill:#265161;fill-opacity:1;stroke:url(#linearGradient820);stroke-width:1.71999526;stroke-linecap:round;stroke-linejoin:miter;stroke-miterlimit:4;stroke-dasharray:none;stroke-opacity:1;paint-order:normal"
       id="rect812"
       width="65.934654"
       height="65.801018"
       x="1.0427216"
       y="230.15625" />
  </g>
</svg>
