<?xml version="1.0" encoding="UTF-8" standalone="no"?>
<!-- Created with Inkscape (http://www.inkscape.org/) -->

<svg
   xmlns:dc="http://purl.org/dc/elements/1.1/"
   xmlns:cc="http://creativecommons.org/ns#"
   xmlns:rdf="http://www.w3.org/1999/02/22-rdf-syntax-ns#"
   xmlns:svg="http://www.w3.org/2000/svg"
   xmlns="http://www.w3.org/2000/svg"
   xmlns:sodipodi="http://sodipodi.sourceforge.net/DTD/sodipodi-0.dtd"
   xmlns:inkscape="http://www.inkscape.org/namespaces/inkscape"
   width="67.769051mm"
   height="68.707024mm"
   viewBox="0 0 67.769051 68.707024"
   version="1.1"
   id="svg8"
   sodipodi:docname="phase_icon_day.svg"
   inkscape:version="0.92.2 2405546, 2018-03-11">
  <defs
     id="defs2" />
  <sodipodi:namedview
     id="base"
     pagecolor="#ffffff"
     bordercolor="#666666"
     borderopacity="1.0"
     inkscape:pageopacity="0.0"
     inkscape:pageshadow="2"
     inkscape:zoom="0.51969075"
     inkscape:cx="250.30554"
     inkscape:cy="707.62172"
     inkscape:document-units="mm"
     inkscape:current-layer="layer1"
     showgrid="false"
     inkscape:window-width="1920"
     inkscape:window-height="1025"
     inkscape:window-x="0"
     inkscape:window-y="0"
     inkscape:window-maximized="1"
     inkscape:snap-page="false"
     inkscape:measure-start="420.223,982.373"
     inkscape:measure-end="420.223,982.5"
     inkscape:snap-bbox="true"
     inkscape:snap-bbox-midpoints="true"
     inkscape:bbox-paths="true"
     inkscape:bbox-nodes="true"
     inkscape:snap-bbox-edge-midpoints="true"
     fit-margin-top="0"
     fit-margin-left="0"
     fit-margin-right="0"
     fit-margin-bottom="0" />
  <metadata
     id="metadata5">
    <rdf:RDF>
      <cc:Work
         rdf:about="">
        <dc:format>image/svg+xml</dc:format>
        <dc:type
           rdf:resource="http://purl.org/dc/dcmitype/StillImage" />
        <dc:title></dc:title>
      </cc:Work>
    </rdf:RDF>
  </metadata>
  <g
     inkscape:label="Layer 1"
     inkscape:groupmode="layer"
     id="layer1"
     transform="translate(-70.230992,-201.72849)">
    <g
       id="g4166"
       transform="translate(-1.8275414,2.5200006)"
       style="fill:#ffec40;fill-opacity:1;stroke:#ffec40;stroke-opacity:1">
      <circle
         r="22.317009"
         cy="233.85106"
         cx="105.68739"
         id="path10-5-1"
         style="fill:#ffec40;fill-opacity:1;stroke:#ffec40;stroke-width:0.26458332;stroke-opacity:1" />
      <g
         inkscape:transform-center-y="-28.799922"
         inkscape:transform-center-x="0.18021278"
         id="g31-3-2"
         transform="translate(4.5258754,165.76742)"
         style="fill:#ffec40;fill-opacity:1;stroke:#ffec40;stroke-opacity:1">
        <path
           style="fill:#ffec40;fill-opacity:1;stroke:#ffec40;stroke-width:0.37175423px;stroke-linecap:butt;stroke-linejoin:miter;stroke-opacity:1"
           d="m 98.029647,42.983669 c -2.490204,-2.185584 1.877243,-5.636511 1.877243,-5.636511 0,0 2.5285,-1.725463 2.22202,-3.450923 -0.30648,-1.725463 5.32521,5.348931 1.724,7.016883 -3.60123,1.667944 -2.1071,3.968562 -3.8694,3.393408 0,0 -0.008,0.02354 -1.953863,-1.322857 z"
           id="path41-5-9"
           inkscape:connector-curvature="0"
           inkscape:transform-center-x="0.63660888"
           inkscape:transform-center-y="-28.892305" />
      </g>
      <g
         transform="rotate(-25.5,469.89773,140.69483)"
         id="g3788-1"
         inkscape:transform-center-x="12.067765"
         inkscape:transform-center-y="-25.940424"
         style="fill:#ffec40;fill-opacity:1;stroke:#ffec40;stroke-opacity:1">
        <path
           inkscape:transform-center-y="-28.892305"
           inkscape:transform-center-x="0.63660888"
           inkscape:connector-curvature="0"
           id="path3786-9"
           d="m 98.029647,42.983669 c -2.490204,-2.185584 1.877243,-5.636511 1.877243,-5.636511 0,0 2.5285,-1.725463 2.22202,-3.450923 -0.30648,-1.725463 5.32521,5.348931 1.724,7.016883 -3.60123,1.667944 -2.1071,3.968562 -3.8694,3.393408 0,0 -0.008,0.02354 -1.953863,-1.322857 z"
           style="fill:#ffec40;fill-opacity:1;stroke:#ffec40;stroke-width:0.37175423px;stroke-linecap:butt;stroke-linejoin:miter;stroke-opacity:1" />
      </g>
      <g
         inkscape:transform-center-y="-17.702285"
         inkscape:transform-center-x="22.334161"
         id="g3792-4"
         transform="rotate(-51,277.37375,145.95123)"
         style="fill:#ffec40;fill-opacity:1;stroke:#ffec40;stroke-opacity:1">
        <path
           style="fill:#ffec40;fill-opacity:1;stroke:#ffec40;stroke-width:0.37175423px;stroke-linecap:butt;stroke-linejoin:miter;stroke-opacity:1"
           d="m 98.029647,42.983669 c -2.490204,-2.185584 1.877243,-5.636511 1.877243,-5.636511 0,0 2.5285,-1.725463 2.22202,-3.450923 -0.30648,-1.725463 5.32521,5.348931 1.724,7.016883 -3.60123,1.667944 -2.1071,3.968562 -3.8694,3.393408 0,0 -0.008,0.02354 -1.953863,-1.322857 z"
           id="path3790-7"
           inkscape:connector-curvature="0"
           inkscape:transform-center-x="0.63660888"
           inkscape:transform-center-y="-28.892305" />
      </g>
      <g
         transform="rotate(-76.5,208.74194,147.82505)"
         id="g3796-8"
         inkscape:transform-center-x="27.998449"
         inkscape:transform-center-y="-6.3040328"
         style="fill:#ffec40;fill-opacity:1;stroke:#ffec40;stroke-opacity:1">
        <path
           inkscape:transform-center-y="-28.892305"
           inkscape:transform-center-x="0.63660888"
           inkscape:connector-curvature="0"
           id="path3794-4"
           d="m 98.029647,42.983669 c -2.490204,-2.185584 1.877243,-5.636511 1.877243,-5.636511 0,0 2.5285,-1.725463 2.22202,-3.450923 -0.30648,-1.725463 5.32521,5.348931 1.724,7.016883 -3.60123,1.667944 -2.1071,3.968562 -3.8694,3.393408 0,0 -0.008,0.02354 -1.953863,-1.322857 z"
           style="fill:#ffec40;fill-opacity:1;stroke:#ffec40;stroke-width:0.37175423px;stroke-linecap:butt;stroke-linejoin:miter;stroke-opacity:1" />
      </g>
      <g
         inkscape:transform-center-y="5.9186838"
         inkscape:transform-center-x="28.159298"
         id="g3800-5"
         transform="rotate(-102,170.72234,148.86308)"
         style="fill:#ffec40;fill-opacity:1;stroke:#ffec40;stroke-opacity:1">
        <path
           style="fill:#ffec40;fill-opacity:1;stroke:#ffec40;stroke-width:0.37175423px;stroke-linecap:butt;stroke-linejoin:miter;stroke-opacity:1"
           d="m 98.029647,42.983669 c -2.490204,-2.185584 1.877243,-5.636511 1.877243,-5.636511 0,0 2.5285,-1.725463 2.22202,-3.450923 -0.30648,-1.725463 5.32521,5.348931 1.724,7.016883 -3.60123,1.667944 -2.1071,3.968562 -3.8694,3.393408 0,0 -0.008,0.02354 -1.953863,-1.322857 z"
           id="path3798-0"
           inkscape:connector-curvature="0"
           inkscape:transform-center-x="0.63660888"
           inkscape:transform-center-y="-28.892305" />
      </g>
      <g
         transform="rotate(-127.5,144.47817,149.57962)"
         id="g3804-3"
         inkscape:transform-center-x="22.695636"
         inkscape:transform-center-y="17.139958"
         style="fill:#ffec40;fill-opacity:1;stroke:#ffec40;stroke-opacity:1">
        <path
           inkscape:transform-center-y="-28.892305"
           inkscape:transform-center-x="0.63660888"
           inkscape:connector-curvature="0"
           id="path3802-6"
           d="m 98.029647,42.983669 c -2.490204,-2.185584 1.877243,-5.636511 1.877243,-5.636511 0,0 2.5285,-1.725463 2.22202,-3.450923 -0.30648,-1.725463 5.32521,5.348931 1.724,7.016883 -3.60123,1.667944 -2.1071,3.968562 -3.8694,3.393408 0,0 -0.008,0.02354 -1.953863,-1.322857 z"
           style="fill:#ffec40;fill-opacity:1;stroke:#ffec40;stroke-width:0.37175423px;stroke-linecap:butt;stroke-linejoin:miter;stroke-opacity:1" />
      </g>
      <g
         inkscape:transform-center-y="25.63727"
         inkscape:transform-center-x="12.5473"
         id="g3808-1"
         transform="rotate(-153,123.50306,150.1523)"
         style="fill:#ffec40;fill-opacity:1;stroke:#ffec40;stroke-opacity:1">
        <path
           style="fill:#ffec40;fill-opacity:1;stroke:#ffec40;stroke-width:0.37175423px;stroke-linecap:butt;stroke-linejoin:miter;stroke-opacity:1"
           d="m 98.029647,42.983669 c -2.490204,-2.185584 1.877243,-5.636511 1.877243,-5.636511 0,0 2.5285,-1.725463 2.22202,-3.450923 -0.30648,-1.725463 5.32521,5.348931 1.724,7.016883 -3.60123,1.667944 -2.1071,3.968562 -3.8694,3.393408 0,0 -0.008,0.02354 -1.953863,-1.322857 z"
           id="path3806-0"
           inkscape:connector-curvature="0"
           inkscape:transform-center-x="0.63660888"
           inkscape:transform-center-y="-28.892305" />
      </g>
      <g
         transform="rotate(-178.5,104.68944,150.66596)"
         id="g3812-6"
         inkscape:transform-center-x="0.54379809"
         inkscape:transform-center-y="28.790211"
         style="fill:#ffec40;fill-opacity:1;stroke:#ffec40;stroke-opacity:1">
        <path
           inkscape:transform-center-y="-28.892305"
           inkscape:transform-center-x="0.63660888"
           inkscape:connector-curvature="0"
           id="path3810-3"
           d="m 98.029647,42.983669 c -2.490204,-2.185584 1.877243,-5.636511 1.877243,-5.636511 0,0 2.5285,-1.725463 2.22202,-3.450923 -0.30648,-1.725463 5.32521,5.348931 1.724,7.016883 -3.60123,1.667944 -2.1071,3.968562 -3.8694,3.393408 0,0 -0.008,0.02354 -1.953863,-1.322857 z"
           style="fill:#ffec40;fill-opacity:1;stroke:#ffec40;stroke-width:0.37175423px;stroke-linecap:butt;stroke-linejoin:miter;stroke-opacity:1" />
      </g>
      <g
         inkscape:transform-center-y="26.261047"
         inkscape:transform-center-x="-11.40916"
         id="g3816-2"
         transform="rotate(156,85.986963,151.17659)"
         style="fill:#ffec40;fill-opacity:1;stroke:#ffec40;stroke-opacity:1">
        <path
           style="fill:#ffec40;fill-opacity:1;stroke:#ffec40;stroke-width:0.37175423px;stroke-linecap:butt;stroke-linejoin:miter;stroke-opacity:1"
           d="m 98.029647,42.983669 c -2.490204,-2.185584 1.877243,-5.636511 1.877243,-5.636511 0,0 2.5285,-1.725463 2.22202,-3.450923 -0.30648,-1.725463 5.32521,5.348931 1.724,7.016883 -3.60123,1.667944 -2.1071,3.968562 -3.8694,3.393408 0,0 -0.008,0.02354 -1.953863,-1.322857 z"
           id="path3814-0"
           inkscape:connector-curvature="0"
           inkscape:transform-center-x="0.63660888"
           inkscape:transform-center-y="-28.892305" />
      </g>
      <g
         transform="rotate(130.5,65.394533,151.73882)"
         id="g3820-6"
         inkscape:transform-center-x="-21.84857"
         inkscape:transform-center-y="18.307996"
         style="fill:#ffec40;fill-opacity:1;stroke:#ffec40;stroke-opacity:1">
        <path
           inkscape:transform-center-y="-28.892305"
           inkscape:transform-center-x="0.63660888"
           inkscape:connector-curvature="0"
           id="path3818-1"
           d="m 98.029647,42.983669 c -2.490204,-2.185584 1.877243,-5.636511 1.877243,-5.636511 0,0 2.5285,-1.725463 2.22202,-3.450923 -0.30648,-1.725463 5.32521,5.348931 1.724,7.016883 -3.60123,1.667944 -2.1071,3.968562 -3.8694,3.393408 0,0 -0.008,0.02354 -1.953863,-1.322857 z"
           style="fill:#ffec40;fill-opacity:1;stroke:#ffec40;stroke-width:0.37175423px;stroke-linecap:butt;stroke-linejoin:miter;stroke-opacity:1" />
      </g>
      <g
         inkscape:transform-center-y="7.0142367"
         inkscape:transform-center-x="-27.811411"
         id="g3824-5"
         transform="rotate(105,40.005541,152.432)"
         style="fill:#ffec40;fill-opacity:1;stroke:#ffec40;stroke-opacity:1">
        <path
           style="fill:#ffec40;fill-opacity:1;stroke:#ffec40;stroke-width:0.37175423px;stroke-linecap:butt;stroke-linejoin:miter;stroke-opacity:1"
           d="m 98.029647,42.983669 c -2.490204,-2.185584 1.877243,-5.636511 1.877243,-5.636511 0,0 2.5285,-1.725463 2.22202,-3.450923 -0.30648,-1.725463 5.32521,5.348931 1.724,7.016883 -3.60123,1.667944 -2.1071,3.968562 -3.8694,3.393408 0,0 -0.008,0.02354 -1.953863,-1.322857 z"
           id="path3822-5"
           inkscape:connector-curvature="0"
           inkscape:transform-center-x="0.63660888"
           inkscape:transform-center-y="-28.892305" />
      </g>
      <g
         transform="rotate(79.5,3.9476286,153.41648)"
         id="g3828-4"
         inkscape:transform-center-x="-28.309077"
         inkscape:transform-center-y="-5.2105478"
         style="fill:#ffec40;fill-opacity:1;stroke:#ffec40;stroke-opacity:1">
        <path
           inkscape:transform-center-y="-28.892305"
           inkscape:transform-center-x="0.63660888"
           inkscape:connector-curvature="0"
           id="path3826-7"
           d="m 98.029647,42.983669 c -2.490204,-2.185584 1.877243,-5.636511 1.877243,-5.636511 0,0 2.5285,-1.725463 2.22202,-3.450923 -0.30648,-1.725463 5.32521,5.348931 1.724,7.016883 -3.60123,1.667944 -2.1071,3.968562 -3.8694,3.393408 0,0 -0.008,0.02354 -1.953863,-1.322857 z"
           style="fill:#ffec40;fill-opacity:1;stroke:#ffec40;stroke-width:0.37175423px;stroke-linecap:butt;stroke-linejoin:miter;stroke-opacity:1" />
      </g>
      <g
         inkscape:transform-center-y="-16.460726"
         inkscape:transform-center-x="-23.179904"
         id="g3832-6"
         transform="rotate(53.999999,-59.063981,155.13687)"
         style="fill:#ffec40;fill-opacity:1;stroke:#ffec40;stroke-opacity:1">
        <path
           style="fill:#ffec40;fill-opacity:1;stroke:#ffec40;stroke-width:0.37175423px;stroke-linecap:butt;stroke-linejoin:miter;stroke-opacity:1"
           d="m 98.029647,42.983669 c -2.490204,-2.185584 1.877243,-5.636511 1.877243,-5.636511 0,0 2.5285,-1.725463 2.22202,-3.450923 -0.30648,-1.725463 5.32521,5.348931 1.724,7.016883 -3.60123,1.667944 -2.1071,3.968562 -3.8694,3.393408 0,0 -0.008,0.02354 -1.953863,-1.322857 z"
           id="path3830-5"
           inkscape:connector-curvature="0"
           inkscape:transform-center-x="0.63660888"
           inkscape:transform-center-y="-28.892305" />
      </g>
      <g
         transform="rotate(28.5,-222.75089,159.60596)"
         id="g3836-6"
         inkscape:transform-center-x="-13.216084"
         inkscape:transform-center-y="-25.28362"
         style="fill:#ffec40;fill-opacity:1;stroke:#ffec40;stroke-opacity:1">
        <path
           inkscape:transform-center-y="-28.892305"
           inkscape:transform-center-x="0.63660888"
           inkscape:connector-curvature="0"
           id="path3834-9"
           d="m 98.029647,42.983669 c -2.490204,-2.185584 1.877243,-5.636511 1.877243,-5.636511 0,0 2.5285,-1.725463 2.22202,-3.450923 -0.30648,-1.725463 5.32521,5.348931 1.724,7.016883 -3.60123,1.667944 -2.1071,3.968562 -3.8694,3.393408 0,0 -0.008,0.02354 -1.953863,-1.322857 z"
           style="fill:#ffec40;fill-opacity:1;stroke:#ffec40;stroke-width:0.37175423px;stroke-linecap:butt;stroke-linejoin:miter;stroke-opacity:1" />
      </g>
    </g>
  </g>
</svg>
