[gd_scene load_steps=4 format=2]

[ext_resource path="res://objects/Consumables/items.gd" type="Script" id=1]
[ext_resource path="res://assets/textures/ramen.png" type="Texture" id=2]

[sub_resource type="RectangleShape2D" id=1]

custom_solver_bias = 0.0
extents = Vector2( 10, 10 )

[node name="1" type="Area2D"]

position = Vector2( 3436.8, 1857.28 )
input_pickable = true
gravity_vec = Vector2( 0, 1 )
gravity = 98.0
linear_damp = 0.1
angular_damp = 1.0
audio_bus_override = false
audio_bus_name = "Master"
script = ExtResource( 1 )

[node name="Sprite" type="Sprite" parent="." index="0"]

texture = ExtResource( 2 )

[node name="CollisionShape2D" type="CollisionShape2D" parent="." index="1"]

position = Vector2( -4.44985, 1.48199 )
scale = Vector2( 8.7953, 8.69029 )
shape = SubResource( 1 )

[connection signal="body_entered" from="." to="." method="_on_simple_item_body_entered"]

[connection signal="body_exited" from="." to="." method="_on_simple_item_body_exited"]


