<?xml version="1.0" encoding="UTF-8" standalone="no"?>
<svg
   xmlns:dc="http://purl.org/dc/elements/1.1/"
   xmlns:cc="http://creativecommons.org/ns#"
   xmlns:rdf="http://www.w3.org/1999/02/22-rdf-syntax-ns#"
   xmlns:svg="http://www.w3.org/2000/svg"
   xmlns="http://www.w3.org/2000/svg"
   xmlns:xlink="http://www.w3.org/1999/xlink"
   id="svg3785"
   version="1.1"
   viewBox="0 0 67.733332 67.733335"
   height="256"
   width="256">
  <defs
     id="defs3779">
    <linearGradient
       id="linearGradient818">
      <stop
         id="stop814"
         offset="0"
         style="stop-color:#c47044;stop-opacity:0.81675392" />
      <stop
         id="stop816"
         offset="1"
         style="stop-color:#4c350f;stop-opacity:0.66666669" />
    </linearGradient>
    <linearGradient
       gradientTransform="matrix(0.97124893,0,0,0.96928043,1.0427216,7.9514625)"
       gradientUnits="userSpaceOnUse"
       y2="263.19039"
       x2="67.886459"
       y1="263.19039"
       x1="0"
       id="linearGradient820"
       xlink:href="#linearGradient818" />
  </defs>
  <metadata
     id="metadata3782">
    <rdf:RDF>
      <cc:Work
         rdf:about="">
        <dc:format>image/svg+xml</dc:format>
        <dc:type
           rdf:resource="http://purl.org/dc/dcmitype/StillImage" />
        <dc:title></dc:title>
      </cc:Work>
    </rdf:RDF>
  </metadata>
  <g
     transform="translate(0,-229.26666)"
     id="layer1">
    <rect
       y="230.15625"
       x="1.0427216"
       height="65.801018"
       width="65.934654"
       id="rect812"
       style="opacity:1;fill:#703e30;fill-opacity:1;stroke:url(#linearGradient820);stroke-width:1.71999526;stroke-linecap:round;stroke-linejoin:miter;stroke-miterlimit:4;stroke-dasharray:none;stroke-opacity:1;paint-order:normal" />
  </g>
</svg>
